/home/project/JAVA-FRAME-STUDY/springboot6/src/main/java/com/shiyanlou/RabbitApplication.java
/home/project/JAVA-FRAME-STUDY/springboot6/src/main/java/com/shiyanlou/RabbitConfig.java
/home/project/JAVA-FRAME-STUDY/springboot6/src/main/java/com/shiyanlou/Provider.java
/home/project/JAVA-FRAME-STUDY/springboot6/src/main/java/com/shiyanlou/Consumer.java
