shiyanlou/mybatis/onetoone/model/Classes.class
shiyanlou/mybatis/onetoone/App.class
shiyanlou/mybatis/onetoone/test/Test.class
shiyanlou/mybatis/onetoone/model/HeadTeacher.class
shiyanlou/mybatis/onetoone/mapper/ClassesMapper.class
